Lab 1
…
## Warning: The `parent` argument of `new_data_mask()` is deprecated.
## The parent of the data mask is determined from either:
## 
##   * The `env` argument of `eval_tidy()`
##   * Quosure environments when applicable
## This warning is displayed once per session.

## Warning: `overscope_clean()` is soft-deprecated as of rlang 0.2.0.
## This warning is displayed once per session.

ia_stations

## # A tibble: 23 x 1
##                 NAME
##                <chr>
##  1       ALBIA 3 NNE
##  2        ALGONA 3 W
##  3      BELLE PLAINE
##  4      CHARLES CITY
##  5          CLARINDA
##  6        CLINTON #1
##  7   ESTHERVILLE 2 N
##  8         FAIRFIELD
##  9           FAYETTE
## 10 FOREST CITY 2 NNE
## # ... with 13 more rows
…
